reg_bank/regbank_TB.vcd
$date
	Thu Jul 16 14:20:30 2026
$end
$version
	Icarus Verilog
$end
$timescale
	1ps
$end
$scope module reg_bank_TB_2 $end
$var wire 207 ! result_flat [206:0] $end
$var wire 1 " quantizer_rst $end
$var wire 23 # quantizer_in [22:0] $end
$var wire 1 $ o_idle $end
$var wire 1 % grid_reset $end
$var wire 9 & data_valid_flat [8:0] $end
$var wire 8 ' data_out [7:0] $end
$var wire 81 ( data_b_flat [80:0] $end
$var wire 81 ) data_a_flat [80:0] $end
$var parameter 32 * GRID_SIZE $end
$var parameter 32 + NUM_MATRICES $end
$var reg 1 , arithmetic_op $end
$var reg 2 - arithmetic_op_type [1:0] $end
$var reg 8 . clamp_max [7:0] $end
$var reg 1 / clamp_op $end
$var reg 1 0 clk $end
$var reg 8 1 data_in [7:0] $end
$var reg 1 2 data_load $end
$var reg 1 3 data_read $end
$var reg 2 4 matrix_1 [1:0] $end
$var reg 2 5 matrix_2 [1:0] $end
$var reg 2 6 matrix_cols [1:0] $end
$var reg 1 7 matrix_config $end
$var reg 2 8 matrix_rows [1:0] $end
$var reg 1 9 matrix_signed $end
$var reg 1 : quantization_op $end
$var reg 8 ; quantizer_out [7:0] $end
$var reg 1 < relu_op $end
$var reg 1 = rst_n $end
$var reg 1 > shift_col $end
$var reg 1 ? shift_row $end
$var integer 32 @ error_count [31:0] $end
$scope begin g_pack[0] $end
$var parameter 2 A gi $end
$upscope $end
$scope begin g_pack[1] $end
$var parameter 2 B gi $end
$upscope $end
$scope begin g_pack[2] $end
$var parameter 3 C gi $end
$upscope $end
$scope begin g_pack[3] $end
$var parameter 3 D gi $end
$upscope $end
$scope begin g_pack[4] $end
$var parameter 4 E gi $end
$upscope $end
$scope begin g_pack[5] $end
$var parameter 4 F gi $end
$upscope $end
$scope begin g_pack[6] $end
$var parameter 4 G gi $end
$upscope $end
$scope begin g_pack[7] $end
$var parameter 4 H gi $end
$upscope $end
$scope begin g_pack[8] $end
$var parameter 5 I gi $end
$upscope $end
$scope module dut $end
$var wire 1 , i_arithmetic_op $end
$var wire 2 J i_arithmetic_op_type [1:0] $end
$var wire 8 K i_clamp_max [7:0] $end
$var wire 1 / i_clamp_op $end
$var wire 1 0 i_clk $end
$var wire 8 L i_data [7:0] $end
$var wire 1 2 i_data_load $end
$var wire 1 3 i_data_read $end
$var wire 2 M i_matrix_1 [1:0] $end
$var wire 2 N i_matrix_2 [1:0] $end
$var wire 2 O i_matrix_cols [1:0] $end
$var wire 1 7 i_matrix_config $end
$var wire 2 P i_matrix_rows [1:0] $end
$var wire 1 9 i_matrix_signed $end
$var wire 8 Q i_quant_data [7:0] $end
$var wire 1 : i_quantization_op $end
$var wire 1 < i_relu_op $end
$var wire 207 R i_result [206:0] $end
$var wire 1 = i_rst_n $end
$var wire 1 > i_shift_col $end
$var wire 1 ? i_shift_row $end
$var wire 1 " o_quant_reset $end
$var wire 1 $ o_idle $end
$var wire 1 % o_grid_reset $end
$var parameter 32 S GRID_SIZE $end
$var reg 2 T cols_a [1:0] $end
$var reg 2 U cols_b [1:0] $end
$var reg 3 V current_state [2:0] $end
$var reg 2 W matrix_cols_st [1:0] $end
$var reg 2 X matrix_rows_st [1:0] $end
$var reg 2 Y matrix_sel_a [1:0] $end
$var reg 2 Z matrix_sel_b [1:0] $end
$var reg 3 [ next_state [2:0] $end
$var reg 81 \ o_data_a [80:0] $end
$var reg 81 ] o_data_b [80:0] $end
$var reg 8 ^ o_data_rd [7:0] $end
$var reg 9 _ o_data_valid [8:0] $end
$var reg 23 ` o_quant_ip [22:0] $end
$var reg 3 a oper_ctr [2:0] $end
$var reg 2 b rows_a [1:0] $end
$var reg 2 c rows_b [1:0] $end
$scope begin $ivl_for_loop0 $end
$var integer 32 d i [31:0] $end
$upscope $end
$scope begin $ivl_for_loop1 $end
$var integer 32 e i [31:0] $end
$scope begin $ivl_for_loop2 $end
$var integer 32 f j [31:0] $end
$upscope $end
$upscope $end
$scope begin $ivl_for_loop10 $end
$var integer 32 g i [31:0] $end
$scope begin $ivl_for_loop11 $end
$var integer 32 h j [31:0] $end
$upscope $end
$upscope $end
$scope begin $ivl_for_loop12 $end
$var integer 32 i i [31:0] $end
$scope begin $ivl_for_loop13 $end
$var integer 32 j j [31:0] $end
$upscope $end
$upscope $end
$scope begin $ivl_for_loop14 $end
$var integer 32 k i [31:0] $end
$scope begin $ivl_for_loop15 $end
$var integer 32 l j [31:0] $end
$upscope $end
$upscope $end
$scope begin $ivl_for_loop16 $end
$var integer 32 m i [31:0] $end
$scope begin $ivl_for_loop17 $end
$var integer 32 n j [31:0] $end
$upscope $end
$upscope $end
$scope begin $ivl_for_loop18 $end
$var integer 32 o i [31:0] $end
$scope begin $ivl_for_loop19 $end
$var integer 32 p j [31:0] $end
$upscope $end
$upscope $end
$scope begin $ivl_for_loop20 $end
$var integer 32 q i [31:0] $end
$scope begin $ivl_for_loop21 $end
$var integer 32 r j [31:0] $end
$upscope $end
$upscope $end
$scope begin $ivl_for_loop3 $end
$var integer 32 s i [31:0] $end
$upscope $end
$scope begin $ivl_for_loop4 $end
$var integer 32 t i [31:0] $end
$upscope $end
$scope begin $ivl_for_loop5 $end
$var integer 32 u j [31:0] $end
$scope begin $ivl_for_loop6 $end
$var integer 32 v k [31:0] $end
$scope begin $ivl_for_loop7 $end
$var integer 32 w i [31:0] $end
$upscope $end
$upscope $end
$upscope $end
$scope begin $ivl_for_loop8 $end
$var integer 32 x i [31:0] $end
$scope begin $ivl_for_loop9 $end
$var integer 32 y j [31:0] $end
$upscope $end
$upscope $end
$upscope $end
$scope task assert_eq $end
$upscope $end
$scope task check_accum_uniform $end
$scope begin $ivl_for_loop22 $end
$scope begin $ivl_for_loop23 $end
$upscope $end
$upscope $end
$upscope $end
$scope task check_all_cleared $end
$scope begin $ivl_for_loop28 $end
$scope begin $ivl_for_loop29 $end
$scope begin $ivl_for_loop30 $end
$upscope $end
$upscope $end
$upscope $end
$scope begin $ivl_for_loop31 $end
$scope begin $ivl_for_loop32 $end
$upscope $end
$upscope $end
$upscope $end
$scope task check_mac_valid_uniform $end
$scope begin $ivl_for_loop24 $end
$upscope $end
$upscope $end
$scope task clear_inputs $end
$scope begin $ivl_for_loop25 $end
$upscope $end
$upscope $end
$scope task fill_matrix $end
$scope begin $ivl_for_loop26 $end
$scope begin $ivl_for_loop27 $end
$upscope $end
$upscope $end
$upscope $end
$scope task inject_garbage $end
$scope begin $ivl_for_loop33 $end
$scope begin $ivl_for_loop34 $end
$scope begin $ivl_for_loop35 $end
$upscope $end
$upscope $end
$upscope $end
$scope begin $ivl_for_loop36 $end
$scope begin $ivl_for_loop37 $end
$upscope $end
$upscope $end
$upscope $end
$scope task reset_dut $end
$upscope $end
$scope task start_op $end
$upscope $end
$scope task test_01_reset $end
$upscope $end
$scope task test_02_matrix_config $end
$scope begin $ivl_for_loop38 $end
$upscope $end
$upscope $end
$scope task test_03_data_load_read $end
$scope begin $ivl_for_loop39 $end
$scope begin $ivl_for_loop40 $end
$upscope $end
$upscope $end
$scope begin $ivl_for_loop41 $end
$scope begin $ivl_for_loop42 $end
$upscope $end
$upscope $end
$scope begin $ivl_for_loop43 $end
$upscope $end
$scope begin $ivl_for_loop44 $end
$upscope $end
$scope begin $ivl_for_loop45 $end
$scope begin $ivl_for_loop46 $end
$scope begin $ivl_for_loop47 $end
$upscope $end
$upscope $end
$upscope $end
$upscope $end
$scope task test_04_sign_extension $end
$scope begin $unm_blk_90 $end
$scope begin $ivl_for_loop48 $end
$scope begin $ivl_for_loop49 $end
$upscope $end
$upscope $end
$upscope $end
$upscope $end
$scope task test_05_add $end
$scope begin $ivl_for_loop50 $end
$upscope $end
$scope begin $ivl_for_loop51 $end
$upscope $end
$scope begin $ivl_for_loop52 $end
$upscope $end
$scope begin $ivl_for_loop53 $end
$upscope $end
$upscope $end
$scope task test_06_el_mul $end
$upscope $end
$scope task test_07_mat_mul $end
$scope begin $ivl_for_loop54 $end
$upscope $end
$scope begin $ivl_for_loop55 $end
$upscope $end
$upscope $end
$scope task test_08_dot_prod $end
$scope begin $ivl_for_loop56 $end
$upscope $end
$scope begin $ivl_for_loop57 $end
$scope begin $ivl_for_loop58 $end
$upscope $end
$upscope $end
$upscope $end
$scope task test_09_accum $end
$scope begin $ivl_for_loop59 $end
$upscope $end
$scope begin $ivl_for_loop60 $end
$upscope $end
$scope begin $ivl_for_loop61 $end
$upscope $end
$scope begin $ivl_for_loop62 $end
$upscope $end
$scope begin $ivl_for_loop63 $end
$upscope $end
$upscope $end
$scope task test_10_quant $end
$scope begin $ivl_for_loop64 $end
$scope begin $ivl_for_loop65 $end
$upscope $end
$upscope $end
$upscope $end
$scope task test_11_shift_row $end
$scope begin $ivl_for_loop66 $end
$scope begin $ivl_for_loop67 $end
$upscope $end
$upscope $end
$upscope $end
$scope task test_12_shift_col $end
$scope begin $ivl_for_loop68 $end
$scope begin $ivl_for_loop69 $end
$upscope $end
$upscope $end
$upscope $end
$scope task test_13_relu $end
$upscope $end
$scope task test_14_clamp $end
$upscope $end
$scope task test_15_fsm $end
$upscope $end
$scope task test_16_invalid $end
$upscope $end
$scope task wait_idle $end
$scope begin $unm_blk_76 $end
$upscope $end
$upscope $end
$scope task write_val $end
$upscope $end
$upscope $end
$enddefinitions $end
$comment Show the parameter values. $end
$dumpall
b11 S
b1000 I
b111 H
b110 G
b101 F
b100 E
b11 D
b10 C
b1 B
b0 A
b100 +
b11 *
$end
#0
$dumpvars
b0 y
b0 x
b100 w
b11 v
b11 u
b0 t
b100 s
b0 r
b0 q
b0 p
b0 o
b0 n
b0 m
b0 l
b0 k
b0 j
b0 i
b0 h
b0 g
b11 f
b11 e
b100 d
b0 c
b0 b
b0 a
b0 `
b0 _
b0 ^
b0 ]
b0 \
b0 [
b0 Z
b0 Y
b0 X
b0 W
b0 V
b0 U
b0 T
b0 R
b0 Q
b0 P
b0 O
b0 N
b0 M
b0 L
b0 K
b0 J
b0 @
0?
0>
0=
0<
b0 ;
0:
09
b0 8
07
b0 6
b0 5
b0 4
03
02
b0 1
00
0/
b0 .
b0 -
0,
b0 )
b0 (
b0 '
b0 &
0%
1$
b0 #
0"
b0 !
$end
#5000
b100 w
b11 v
b11 u
b100 s
b100 d
10
#10000
00
#15000
b100 w
b11 v
b11 u
b100 s
b100 d
10
#20000
00
#25000
b100 t
1=
10
#30000
00
#35000
b100 s
b100 d
b100 w
b11 v
b11 u
0=
10
#40000
00
#45000
b100 s
b100 d
b100 w
b11 v
b11 u
10
#50000
00
#55000
b100 s
b100 d
b100 w
b11 v
b11 u
10
#60000
00
#65000
b100 t
1=
10
#70000
00
#75000
b1 Z
b1 [
b11 f
b11 e
b100 t
b1 5
b1 N
1,
10
#80000
00
#85000
b1000000001000000001000000001000000001000000001000000001000000001000000001 (
b1000000001000000001000000001000000001000000001000000001000000001000000001 ]
b11111111011111111011111111011111111011111111011111111011111111011111111011111111 )
b11111111011111111011111111011111111011111111011111111011111111011111111011111111 \
b111111111 &
b111111111 _
b11 f
b11 e
1%
0$
b1 V
b1 [
b100 t
0,
10
#90000
00
#95000
b0 [
0%
b0 (
b0 ]
b0 )
b0 \
b0 &
b0 _
b11 f
b11 e
1$
b0 V
b0 Z
b100 s
b100 w
b11 v
b11 u
b100 d
0=
10
#100000
00
#105000
b1 Z
b10 [
b11 f
b11 e
b100 t
b1 -
b1 J
1,
1=
10
#110000
00
#115000
b11111111011111111011111111011111111011111111011111111011111111011111111011111111 (
b11111111011111111011111111011111111011111111011111111011111111011111111011111111 ]
b11111111011111111011111111011111111011111111011111111011111111011111111011111111 )
b11111111011111111011111111011111111011111111011111111011111111011111111011111111 \
b111111111 &
b111111111 _
b11 f
b11 e
1%
0$
b10 V
b10 [
b100 t
0,
10
#120000
00
#125000
b0 (
b0 ]
b0 )
b0 \
b0 &
b0 _
b11 f
b11 e
b0 [
0%
b0 Z
1$
b0 V
b100 s
b100 w
b11 v
b11 u
b100 d
0=
10
#130000
00
#135000
b1 Z
b11 [
b11 f
b11 e
b100 t
b11 -
b11 J
1,
1=
10
#140000
00
#145000
b11111111011111111011111111011111111011111111011111111011111111011111111011111111 (
b11111111011111111011111111011111111011111111011111111011111111011111111011111111 ]
b11111111011111111011111111011111111011111111011111111011111111011111111011111111 )
b11111111011111111011111111011111111011111111011111111011111111011111111011111111 \
b111111111 &
b111111111 _
b11 f
b11 e
1%
0$
b11 V
b11 [
b100 t
0,
10
#150000
00
#155000
b0 [
0%
b0 (
b0 ]
b0 )
b0 \
b0 &
b0 _
b11 f
b11 e
1$
b0 V
b0 Z
b100 s
b100 w
b11 v
b11 u
b100 d
0=
10
#160000
00
#165000
b1 Z
b100 [
b11 f
b11 e
b100 t
b10 -
b10 J
1,
1=
10
#170000
00
#175000
b11111111 (
b11111111 ]
b11111111 )
b11111111 \
b1 &
b1 _
b11 f
b11 e
1%
0$
b100 V
b100 [
b100 t
0,
10
#180000
00
#185000
b0 (
b0 ]
b0 )
b0 \
b0 &
b0 _
b11 f
b11 e
b0 [
0%
b0 Z
1$
b0 V
b100 s
b100 w
b11 v
b11 u
b100 d
0=
10
#190000
00
#195000
b1 Z
b10 Y
b101 [
b11 f
b11 e
b100 t
b10 4
b10 M
1:
1=
10
#200000
00
#205000
b11111111111111111111111 #
b11111111111111111111111 `
b11 f
b11 e
1"
0$
b101 V
b101 [
b100 t
0:
10
#210000
00
#215000
b0 #
b0 `
b0 [
b11 f
b11 e
0"
1$
b0 V
b0 Z
b0 Y
b100 s
b100 w
b11 v
b11 u
b100 d
0=
10
#220000
00
#225000
b11 f
b11 e
b1 Z
b100 t
b11 i
b11 j
b0 4
b0 M
17
1=
10
#230000
00
#235000
b11 f
b11 e
b100 t
b11 j
b11 i
19
10
#240000
00
#245000
b11 f
b11 e
b1 Y
b100 t
b11 j
b11 i
09
b1 4
b1 M
10
#250000
00
#255000
b11 f
b11 e
b100 t
b11 j
b11 i
19
10
#260000
00
#265000
b11 f
b11 e
b10 Y
b100 t
b11 j
b11 i
09
b10 4
b10 M
10
#270000
00
#275000
b11 f
b11 e
b100 t
b11 j
b11 i
19
10
#280000
00
#285000
b11 f
b11 e
b11 Y
b100 t
b11 j
b11 i
09
b11 4
b11 M
10
#290000
00
#295000
b11 f
b11 e
b100 t
b11 j
b11 i
19
10
#300000
00
#305000
b11 f
b11 e
b0 Y
b100 t
b11 j
b11 i
09
b0 4
b0 M
17
10
#310000
00
#315000
b11 f
b11 e
b100 t
b11 j
b11 i
19
10
#320000
00
#325000
b100 t
07
10
#330000
00
#335000
b11 f
b11 e
b0 Z
b100 s
b100 d
b100 w
b11 v
b11 u
0=
10
#340000
00
#345000
b100 s
b100 d
b100 w
b11 v
b11 u
10
#350000
00
#355000
b100 s
b100 d
b100 w
b11 v
b11 u
10
#360000
00
#365000
b11 f
b11 e
b1 Z
b100 t
1=
10
#370000
00
#375000
b100 t
13
10
#380000
00
#385000
b100 t
12
03
10
#390000
00
#395000
b1 W
b100 t
b1 6
b1 O
12
10
#400000
00
#405000
b10 W
b100 t
b10 6
b10 O
12
10
#410000
00
#415000
b0 W
b1 X
b100 t
b0 6
b0 O
b1 8
b1 P
12
10
#420000
00
#425000
b1 W
b100 t
b1 6
b1 O
12
10
#430000
00
#435000
b10 W
b100 t
b10 6
b10 O
12
10
#440000
00
#445000
b0 W
b10 X
b100 t
b0 6
b0 O
b10 8
b10 P
12
10
#450000
00
#455000
b1 W
b100 t
b1 6
b1 O
12
10
#460000
00
#465000
b10 W
b100 t
b10 6
b10 O
12
10
#470000
00
#475000
b11 f
b11 e
b0 W
b0 X
b1 Y
b100 t
b11111111 1
b11111111 L
b0 6
b0 O
b0 8
b0 P
b1 4
b1 M
12
10
#480000
00
#485000
b11 f
b11 e
b1 W
b100 t
b1 6
b1 O
12
10
#490000
00
#495000
b11 f
b11 e
b10 W
b100 t
b10 6
b10 O
12
10
#500000
00
#505000
b11 f
b11 e
b0 W
b1 X
b100 t
b0 6
b0 O
b1 8
b1 P
12
10
#510000
00
#515000
b11 f
b11 e
b1 W
b100 t
b1 6
b1 O
12
10
#520000
00
#525000
b11 f
b11 e
b10 W
b100 t
b10 6
b10 O
12
10
#530000
00
#535000
b11 f
b11 e
b0 W
b10 X
b100 t
b0 6
b0 O
b10 8
b10 P
12
10
#540000
00
#545000
b11 f
b11 e
b1 W
b100 t
b1 6
b1 O
12
10
#550000
00
#555000
b11 f
b11 e
b10 W
b100 t
b10 6
b10 O
12
10
#560000
00
#565000
b11 f
b11 e
b0 W
b0 X
b10 Y
b100 t
b10000000 1
b10000000 L
b0 6
b0 O
b0 8
b0 P
b10 4
b10 M
12
10
#570000
00
#575000
b11 f
b11 e
b1 W
b100 t
b1 6
b1 O
12
10
#580000
00
#585000
b11 f
b11 e
b10 W
b100 t
b10 6
b10 O
12
10
#590000
00
#595000
b11 f
b11 e
b0 W
b1 X
b100 t
b0 6
b0 O
b1 8
b1 P
12
10
#600000
00
#605000
b11 f
b11 e
b1 W
b100 t
b1 6
b1 O
12
10
#610000
00
#615000
b11 f
b11 e
b10 W
b100 t
b10 6
b10 O
12
10
#620000
00
#625000
b11 f
b11 e
b0 W
b10 X
b100 t
b0 6
b0 O
b10 8
b10 P
12
10
#630000
00
#635000
b11 f
b11 e
b1 W
b100 t
b1 6
b1 O
12
10
#640000
00
#645000
b11 f
b11 e
b10 W
b100 t
b10 6
b10 O
12
10
#650000
00
#655000
b11 f
b11 e
b0 W
b0 X
b11 Y
b100 t
b1111111 1
b1111111 L
b0 6
b0 O
b0 8
b0 P
b11 4
b11 M
12
10
#660000
00
#665000
b11 f
b11 e
b1 W
b100 t
b1 6
b1 O
12
10
#670000
00
#675000
b11 f
b11 e
b10 W
b100 t
b10 6
b10 O
12
10
#680000
00
#685000
b11 f
b11 e
b0 W
b1 X
b100 t
b0 6
b0 O
b1 8
b1 P
12
10
#690000
00
#695000
b11 f
b11 e
b1 W
b100 t
b1 6
b1 O
12
10
#700000
00
#705000
b11 f
b11 e
b10 W
b100 t
b10 6
b10 O
12
10
#710000
00
#715000
b11 f
b11 e
b0 W
b10 X
b100 t
b0 6
b0 O
b10 8
b10 P
12
10
#720000
00
#725000
b11 f
b11 e
b1 W
b100 t
b1 6
b1 O
12
10
#730000
00
#735000
b11 f
b11 e
b10 W
b100 t
b10 6
b10 O
12
10
#740000
00
#745000
b11 f
b11 e
b0 W
b0 X
b0 Y
b100 t
b1010101 1
b1010101 L
b0 6
b0 O
b0 8
b0 P
b0 4
b0 M
12
10
#750000
00
#755000
b11 f
b11 e
b1 W
b100 t
b10101010 1
b10101010 L
b1 6
b1 O
12
10
#760000
00
#765000
b11 f
b11 e
b10 W
b100 t
b1010101 1
b1010101 L
b10 6
b10 O
12
10
#770000
00
#775000
b11 f
b11 e
b0 W
b1 X
b100 t
b10101010 1
b10101010 L
b0 6
b0 O
b1 8
b1 P
12
10
#780000
00
#785000
b11 f
b11 e
b1 W
b100 t
b1010101 1
b1010101 L
b1 6
b1 O
12
10
#790000
00
#795000
b11 f
b11 e
b10 W
b100 t
b10101010 1
b10101010 L
b10 6
b10 O
12
10
#800000
00
#805000
b11 f
b11 e
b0 W
b10 X
b100 t
b1010101 1
b1010101 L
b0 6
b0 O
b10 8
b10 P
12
10
#810000
00
#815000
b11 f
b11 e
b1 W
b100 t
b10101010 1
b10101010 L
b1 6
b1 O
12
10
#820000
00
#825000
b11 f
b11 e
b10 W
b100 t
b1010101 1
b1010101 L
b10 6
b10 O
12
10
#830000
00
#835000
b11 f
b11 e
b0 W
b0 X
b1 Y
b100 t
b10010010 1
b10010010 L
b0 6
b0 O
b0 8
b0 P
b1 4
b1 M
12
10
#840000
00
#845000
b11 f
b11 e
b1 W
b100 t
b1000000 1
b1000000 L
b1 6
b1 O
12
10
#850000
00
#855000
b11 f
b11 e
b10 W
b100 t
b100 1
b100 L
b10 6
b10 O
12
10
#860000
00
#865000
b11 f
b11 e
b0 W
b1 X
b100 t
b110001 1
b110001 L
b0 6
b0 O
b1 8
b1 P
12
10
#870000
00
#875000
b11 f
b11 e
b1 W
b100 t
b10000110 1
b10000110 L
b1 6
b1 O
12
10
#880000
00
#885000
b11 f
b11 e
b10 W
b100 t
b11000110 1
b11000110 L
b10 6
b10 O
12
10
#890000
00
#895000
b11 f
b11 e
b0 W
b10 X
b100 t
b110010 1
b110010 L
b0 6
b0 O
b10 8
b10 P
12
10
#900000
00
#905000
b11 f
b11 e
b1 W
b100 t
b1001 1
b1001 L
b1 6
b1 O
12
10
#910000
00
#915000
b11 f
b11 e
b10 W
b100 t
b10000000 1
b10000000 L
b10 6
b10 O
12
10
#920000
00
#925000
b11 f
b11 e
b0 W
b0 X
b10 Y
b100 t
b10001 1
b10001 L
b0 6
b0 O
b0 8
b0 P
b10 4
b10 M
12
10
#930000
00
#935000
b11 f
b11 e
b10 W
b10 X
b100 t
b100010 1
b100010 L
b10 6
b10 O
b10 8
b10 P
12
10
#940000
00
#945000
b11 f
b11 e
b0 W
b0 X
b100 t
b110011 1
b110011 L
b0 6
b0 O
b0 8
b0 P
12
10
#950000
00
#955000
b11 f
b11 e
b1 W
b100 t
b1 6
b1 O
12
10
#960000
00
#965000
b11 f
b11 e
b10 W
b100 t
b10 6
b10 O
12
10
#970000
00
#975000
b11 f
b11 e
b100 t
b1000100 1
b1000100 L
12
10
#980000
00
#985000
b11 f
b11 e
b1 X
b100 t
b1 8
b1 P
12
10
#990000
00
#995000
b11 f
b11 e
b10 X
b100 t
b10 8
b10 P
12
10
#1000000
00
#1005000
b11 f
b11 e
b1010101 '
b1010101 ^
b0 W
b0 X
b0 Y
b100 t
b0 6
b0 O
b0 8
b0 P
b0 4
b0 M
13
02
10
#1010000
00
#1015000
b1 W
b10101010 '
b10101010 ^
b100 t
b1 6
b1 O
10
#1020000
00
#1025000
b1010101 '
b1010101 ^
b10 W
b100 t
b10 6
b10 O
10
#1030000
00
#1035000
b0 W
b1 X
b10101010 '
b10101010 ^
b100 t
b0 6
b0 O
b1 8
b1 P
10
#1040000
00
#1045000
b1010101 '
b1010101 ^
b1 W
b100 t
b1 6
b1 O
10
#1050000
00
#1055000
b10 W
b10101010 '
b10101010 ^
b100 t
b10 6
b10 O
10
#1060000
00
#1065000
b1010101 '
b1010101 ^
b0 W
b10 X
b100 t
b0 6
b0 O
b10 8
b10 P
10
#1070000
00
#1075000
b1 W
b10101010 '
b10101010 ^
b100 t
b1 6
b1 O
10
#1080000
00
#1085000
b1010101 '
b1010101 ^
b10 W
b100 t
b10 6
b10 O
10
#1090000
00
#1095000
b11 f
b11 e
b0 W
b0 X
b1 Y
b10010010 '
b10010010 ^
b100 t
b0 6
b0 O
b0 8
b0 P
b1 4
b1 M
10
#1100000
00
#1105000
b1000000 '
b1000000 ^
b1 W
b100 t
b1 6
b1 O
10
#1110000
00
#1115000
b10 W
b100 '
b100 ^
b100 t
b10 6
b10 O
10
#1120000
00
#1125000
b110001 '
b110001 ^
b0 W
b1 X
b100 t
b0 6
b0 O
b1 8
b1 P
10
#1130000
00
#1135000
b1 W
b10000110 '
b10000110 ^
b100 t
b1 6
b1 O
10
#1140000
00
#1145000
b11000110 '
b11000110 ^
b10 W
b100 t
b10 6
b10 O
10
#1150000
00
#1155000
b0 W
b10 X
b110010 '
b110010 ^
b100 t
b0 6
b0 O
b10 8
b10 P
10
#1160000
00
#1165000
b1001 '
b1001 ^
b1 W
b100 t
b1 6
b1 O
10
#1170000
00
#1175000
b10 W
b10000000 '
b10000000 ^
b100 t
b10 6
b10 O
10
#1180000
00
#1185000
b11 f
b11 e
b110011 '
b110011 ^
b0 W
b0 X
b10 Y
b100 t
b0 6
b0 O
b0 8
b0 P
b10 4
b10 M
10
#1190000
00
#1195000
b1 W
b100 t
b1 6
b1 O
10
#1200000
00
#1205000
b1000100 '
b1000100 ^
b10 W
b100 t
b10 6
b10 O
10
#1210000
00
#1215000
b0 W
b1 X
b10000000 '
b10000000 ^
b100 t
b0 6
b0 O
b1 8
b1 P
10
#1220000
00
#1225000
b1 W
b100 t
b1 6
b1 O
10
#1230000
00
#1235000
b10 W
b1000100 '
b1000100 ^
b100 t
b10 6
b10 O
10
#1240000
00
#1245000
b10000000 '
b10000000 ^
b0 W
b10 X
b100 t
b0 6
b0 O
b10 8
b10 P
10
#1250000
00
#1255000
b1 W
b100 t
b1 6
b1 O
10
#1260000
00
#1265000
b1000100 '
b1000100 ^
b10 W
b100 t
b10 6
b10 O
10
#1270000
00
#1275000
b11 f
b11 e
b0 W
b0 X
b11 Y
b1111111 '
b1111111 ^
b100 t
b0 6
b0 O
b0 8
b0 P
b11 4
b11 M
10
#1280000
00
#1285000
b1 W
b100 t
b1 6
b1 O
10
#1290000
00
#1295000
b10 W
b100 t
b10 6
b10 O
10
#1300000
00
#1305000
b0 W
b1 X
b100 t
b0 6
b0 O
b1 8
b1 P
10
#1310000
00
#1315000
b1 W
b100 t
b1 6
b1 O
10
#1320000
00
#1325000
b10 W
b100 t
b10 6
b10 O
10
#1330000
00
#1335000
b0 W
b10 X
b100 t
b0 6
b0 O
b10 8
b10 P
10
#1340000
00
#1345000
b1 W
b100 t
b1 6
b1 O
10
#1350000
00
#1355000
b10 W
b100 t
b10 6
b10 O
10
#1360000
00
#1365000
b11 f
b11 e
b0 Y
b100 t
b11 j
b11 i
b0 4
b0 M
17
03
10
#1370000
00
#1375000
b11 f
b11 e
b1 Y
b100 t
b11 j
b11 i
09
b1 4
b1 M
10
#1380000
00
#1385000
b11 f
b11 e
b0 W
b0 X
b0 Y
b100 t
b0 1
b0 L
b0 6
b0 O
b0 8
b0 P
b0 4
b0 M
12
07
10
#1390000
00
#1395000
b1 W
b100 t
b1 6
b1 O
12
10
#1400000
00
#1405000
b10 W
b100 t
b10 6
b10 O
12
10
#1410000
00
#1415000
b0 W
b1 X
b100 t
b0 6
b0 O
b1 8
b1 P
12
10
#1420000
00
#1425000
b1 W
b100 t
b1 6
b1 O
12
10
#1430000
00
#1435000
b10 W
b100 t
b10 6
b10 O
12
10
#1440000
00
#1445000
b0 W
b10 X
b100 t
b0 6
b0 O
b10 8
b10 P
12
10
#1450000
00
#1455000
b1 W
b100 t
b1 6
b1 O
12
10
#1460000
00
#1465000
b10 W
b100 t
b10 6
b10 O
12
10
#1470000
00
#1475000
b11 f
b11 e
b0 W
b0 X
b1 Y
b100 t
b0 6
b0 O
b0 8
b0 P
b1 4
b1 M
12
10
#1480000
00
#1485000
b1 W
b100 t
b1 6
b1 O
12
10
#1490000
00
#1495000
b10 W
b100 t
b10 6
b10 O
12
10
#1500000
00
#1505000
b0 W
b1 X
b100 t
b0 6
b0 O
b1 8
b1 P
12
10
#1510000
00
#1515000
b1 W
b100 t
b1 6
b1 O
12
10
#1520000
00
#1525000
b10 W
b100 t
b10 6
b10 O
12
10
#1530000
00
#1535000
b0 W
b10 X
b100 t
b0 6
b0 O
b10 8
b10 P
12
10
#1540000
00
#1545000
b1 W
b100 t
b1 6
b1 O
12
10
#1550000
00
#1555000
b10 W
b100 t
b10 6
b10 O
12
10
#1560000
00
#1565000
b11 f
b11 e
b0 Y
b10 [
b100 t
b0 4
b0 M
b1 -
b1 J
1,
02
10
#1570000
00
#1575000
b111111111 &
b111111111 _
b11 f
b11 e
1%
0$
b10 V
b10 [
b100 t
0,
10
#1580000
00
#1585000
b0 &
b0 _
b11 f
b11 e
b1 a
b100 t
10
#1590000
00
#1595000
b11 f
b11 e
b10 a
b100 t
10
#1600000
00
#1605000
b11 f
b11 e
b0 [
b11 a
b100 t
10
#1610000
00
#1615000
0%
b11 f
b11 e
1$
b0 V
b100 a
b100 t
b11 g
b11 h
10
#1620000
00
#1625000
b11 f
b11 e
b0 a
b100 t
10
#1630000
00
#1635000
b11 f
b11 e
b0 W
b0 X
b100 t
b10000001 1
b10000001 L
b0 6
b0 O
b0 8
b0 P
12
10
#1640000
00
#1645000
b11 f
b11 e
b1 W
b100 t
b1 6
b1 O
12
10
#1650000
00
#1655000
b11 f
b11 e
b10 W
b100 t
b10 6
b10 O
12
10
#1660000
00
#1665000
b11 f
b11 e
b0 W
b1 X
b100 t
b0 6
b0 O
b1 8
b1 P
12
10
#1670000
00
#1675000
b11 f
b11 e
b1 W
b100 t
b1 6
b1 O
12
10
#1680000
00
#1685000
b11 f
b11 e
b10 W
b100 t
b10 6
b10 O
12
10
#1690000
00
#1695000
b11 f
b11 e
b0 W
b10 X
b100 t
b0 6
b0 O
b10 8
b10 P
12
10
#1700000
00
#1705000
b11 f
b11 e
b1 W
b100 t
b1 6
b1 O
12
10
#1710000
00
#1715000
b11 f
b11 e
b10 W
b100 t
b10 6
b10 O
12
10
#1720000
00
#1725000
b11 f
b11 e
b0 W
b0 X
b1 Y
b100 t
b0 6
b0 O
b0 8
b0 P
b1 4
b1 M
12
10
#1730000
00
#1735000
b11 f
b11 e
b1 W
b100 t
b1 6
b1 O
12
10
#1740000
00
#1745000
b11 f
b11 e
b10 W
b100 t
b10 6
b10 O
12
10
#1750000
00
#1755000
b11 f
b11 e
b0 W
b1 X
b100 t
b0 6
b0 O
b1 8
b1 P
12
10
#1760000
00
#1765000
b11 f
b11 e
b1 W
b100 t
b1 6
b1 O
12
10
#1770000
00
#1775000
b11 f
b11 e
b10 W
b100 t
b10 6
b10 O
12
10
#1780000
00
#1785000
b11 f
b11 e
b0 W
b10 X
b100 t
b0 6
b0 O
b10 8
b10 P
12
10
#1790000
00
#1795000
b11 f
b11 e
b1 W
b100 t
b1 6
b1 O
12
10
#1800000
00
#1805000
b11 f
b11 e
b10 W
b100 t
b10 6
b10 O
12
10
#1810000
00
